@startuml

title __SERVER's Class Diagram__\n

  namespace server {
    namespace actors {
      class server.actors.FileTransferManager {
          {static} - RECEIVE_FILE : String
          - checkSum : String
          - durationLengthForTargetResponse : int
          - fileTransferSocket : Socket
          - receiverAccepted : boolean
          - splitStr : String[]
          - targetUserName : String
          - userName : String
          + FileTransferManager()
          + run()
          + setReceiverAccepted()
          - saveFileFromClient()
          - sendFileToClient()
      }
    }
  }
  

  namespace server {
    namespace utlity {
      class server.utlity.GeneralUtility {
          {static} + removeWord()
          + tryParse()
      }
    }
  }
  

  namespace server {
    namespace model {
      class server.model.Group {
          - clients : Map<String, Socket>
          - groupName : String
          - kickUserHashMap : HashMap<String, KickUser>
          - thread1 : Thread
          + Group()
          + addKickUserProcces()
          + getClients()
          + setClients()
          + statusVoteToKick()
          + toString()
          + voteOnKick()
          - startKickThread()
      }
    }
  }
  

  namespace server {
    namespace actors {
      class server.actors.KickUser {
          - durationLength : Long
          - endTime : long
          - groupName : String
          - members : int
          - userName : String
          - votes : HashMap<String, Boolean>
          + KickUser()
          + addVote()
          + getStatus()
          + run()
          - countTrueVotes()
      }
    }
  }
  

  namespace server {
    namespace actors {
      class server.actors.PingClientActor {
          - ping_delay : int
          + PingClientActor()
          + run()
      }
    }
  }
  

  namespace server {
    class server.Server {
        {static} - FILE_SERVER_PORT : int
        {static} - PING_DELAY_SEC : int
        {static} - SERVER_PORT : int
        {static} - SERVER_VERSION : String
        - SHOULD_PING : boolean
        - clients : Map<String, Socket>
        - clientsFileTransfer : Map<String, Socket>
        - fileTransferManagerMap : Map<String, FileTransferManager>
        - groupMap : Map<String, Group>
        + deleteFileTransferManagerFromMap()
        + getClients()
        + getClientsFileTransfer()
        + getFileTransferManager()
        + getGroup()
        + getGroupMap()
        {static} + main()
        + putFileTransferManagerInMap()
        + putGroup()
        + run()
        + setClients()
        + setGroupMap()
        + userLogin()
        - sendMessageToClient()
        - userExists()
        - validUsernameFormat()
    }
  }
  

  namespace server {
    namespace actors {
      class server.actors.ServerMessageActor {
          - CMD_PONG : String
          - bufferedReader : BufferedReader
          - client : Socket
          - fileTransferManagerThread : Thread
          - fileTransferSocket : Socket
          - lastPong : long
          - pongWithinSec : int
          - shouldPing : boolean
          - userName : String
          + ServerMessageActor()
          + run()
          - addFileTransferManagerProces()
          - addUserToGroup()
          - broadcastToAllUsers()
          - closeClient()
          - commandSwitch()
          - createGroup()
          - extractFromString()
          - forwardPublicKey()
          - kickGroupMember()
          - messageGroup()
          - pmUser()
          - pong()
          - quitUser()
          - receiveFileFromOtherUserAccepted()
          - removeUserFromGroup()
          - returnAllUserList()
          - sendFileToUser()
          - startFileTransferManagerThread()
          - startVoteToKickInGroup()
          - statusGroupKick()
      }
    }
  }
  

  namespace server {
    namespace utlity {
      class server.utlity.ServerUtil {
          - client : Socket
          - clients : Map<String, Socket>
          - groupMap : Map<String, Group>
          - outputStream : OutputStream
          - printWriter : PrintWriter
          + ServerUtil()
          + addUserToGroup()
          + broadcastMessageToAllUsers()
          + broadcastMessageToGroup()
          + broadcastMessageToGroupAsUser()
          + createGroup()
          + deleteClient()
          + deleteFileTransferManagerFromMap()
          + getClientByUsername()
          + getFileTransferManager()
          + getFileTransferSocketByKey()
          + getUsers()
          + listAllGroupsToUser()
          + putFileTransferManagerInMap()
          + removeFileTransferSocketByKey()
          + removeUserFromAllGroups()
          + removeUserFromGroup()
          + sendMessageToClient()
          + setClient()
          + startVoteToKickInGroup()
          + statusVoteToKickProcces()
          + userIsInGroup()
          + voteToKickInGroup()
          + wait()
          - broadcastMessage()
          - getAllGroupNames()
      }
    }
  }
  

  server.actors.FileTransferManager .up.|> java.lang.Runnable
  server.actors.FileTransferManager o-- server.utlity.GeneralUtility : generalUtility
  server.actors.FileTransferManager o-- server.utlity.ServerUtil : serverUtil
  server.model.Group o-- server.actors.KickUser : kickUser
  server.actors.KickUser .up.|> java.lang.Runnable
  server.actors.KickUser o-- server.utlity.ServerUtil : serverUtil
  server.actors.PingClientActor .up.|> java.lang.Runnable
  server.actors.PingClientActor o-- server.utlity.ServerUtil : serverUtil
  server.actors.ServerMessageActor .up.|> java.lang.Runnable
  server.actors.ServerMessageActor o-- server.utlity.ServerUtil : serverUtil
  server.utlity.ServerUtil o-- server.model.Group : group
  server.utlity.ServerUtil o-- server.Server : server


@enduml
